Flow report for DE1_SoC_Default
Sat Aug 17 01:58:47 2019
Quartus Prime Version 17.0.0 Build 595 04/25/2017 SJ Lite Edition


---------------------
; Table of Contents ;
---------------------
  1. Legal Notice
  2. Flow Summary
  3. Flow Settings
  4. Flow Non-Default Global Settings
  5. Flow Elapsed Time
  6. Flow OS Summary
  7. Flow Log
  8. Flow Messages
  9. Flow Suppressed Messages



----------------
; Legal Notice ;
----------------
Copyright (C) 2017  Intel Corporation. All rights reserved.
Your use of Intel Corporation's design tools, logic functions 
and other software and tools, and its AMPP partner logic 
functions, and any output files from any of the foregoing 
(including device programming or simulation files), and any 
associated documentation or information are expressly subject 
to the terms and conditions of the Intel Program License 
Subscription Agreement, the Intel Quartus Prime License Agreement,
the Intel MegaCore Function License Agreement, or other 
applicable license agreement, including, without limitation, 
that your use is for the sole purpose of programming logic 
devices manufactured by Intel and sold by Intel or its 
authorized distributors.  Please refer to the applicable 
agreement for further details.



+-------------------------------------------------------------------------------+
; Flow Summary                                                                  ;
+---------------------------------+---------------------------------------------+
; Flow Status                     ; Successful - Sat Aug 17 01:58:47 2019       ;
; Quartus Prime Version           ; 17.0.0 Build 595 04/25/2017 SJ Lite Edition ;
; Revision Name                   ; DE1_SoC_Default                             ;
; Top-level Entity Name           ; DE1_SoC_Default                             ;
; Family                          ; Cyclone V                                   ;
; Device                          ; 5CSEMA5F31C6                                ;
; Timing Models                   ; Final                                       ;
; Logic utilization (in ALMs)     ; 12,046 / 32,070 ( 38 % )                    ;
; Total registers                 ; 10987                                       ;
; Total pins                      ; 241 / 457 ( 53 % )                          ;
; Total virtual pins              ; 0                                           ;
; Total block memory bits         ; 768 / 4,065,280 ( < 1 % )                   ;
; Total DSP Blocks                ; 0 / 87 ( 0 % )                              ;
; Total HSSI RX PCSs              ; 0                                           ;
; Total HSSI PMA RX Deserializers ; 0                                           ;
; Total HSSI TX PCSs              ; 0                                           ;
; Total HSSI PMA TX Serializers   ; 0                                           ;
; Total PLLs                      ; 1 / 6 ( 17 % )                              ;
; Total DLLs                      ; 0 / 4 ( 0 % )                               ;
+---------------------------------+---------------------------------------------+


+-----------------------------------------+
; Flow Settings                           ;
+-------------------+---------------------+
; Option            ; Setting             ;
+-------------------+---------------------+
; Start date & time ; 08/17/2019 01:52:35 ;
; Main task         ; Compilation         ;
; Revision Name     ; DE1_SoC_Default     ;
+-------------------+---------------------+


+-----------------------------------------------------------------------------------------------------------------------------+
; Flow Non-Default Global Settings                                                                                            ;
+-------------------------------------+----------------------------------------+---------------+-------------+----------------+
; Assignment Name                     ; Value                                  ; Default Value ; Entity Name ; Section Id     ;
+-------------------------------------+----------------------------------------+---------------+-------------+----------------+
; COMPILER_SIGNATURE_ID               ; 233654137299638.156602115532150        ; --            ; --          ; --             ;
; EDA_OUTPUT_DATA_FORMAT              ; Verilog Hdl                            ; --            ; --          ; eda_simulation ;
; EDA_SIMULATION_TOOL                 ; ModelSim-Altera (Verilog)              ; <None>        ; --          ; --             ;
; MAX_CORE_JUNCTION_TEMP              ; 85                                     ; --            ; --          ; --             ;
; MIN_CORE_JUNCTION_TEMP              ; 0                                      ; --            ; --          ; --             ;
; MISC_FILE                           ; V/img_index_inst.v                     ; --            ; --          ; --             ;
; MISC_FILE                           ; V/img_data_inst.v                      ; --            ; --          ; --             ;
; MISC_FILE                           ; V/VGA_Audio.cmp                        ; --            ; --          ; --             ;
; MISC_FILE                           ; V/game_img_writer_bb.v                 ; --            ; --          ; --             ;
; PARTITION_COLOR                     ; -- (Not supported for targeted family) ; --            ; --          ; Top            ;
; PARTITION_FITTER_PRESERVATION_LEVEL ; -- (Not supported for targeted family) ; --            ; --          ; Top            ;
; PARTITION_NETLIST_TYPE              ; -- (Not supported for targeted family) ; --            ; --          ; Top            ;
; POWER_BOARD_THERMAL_MODEL           ; None (CONSERVATIVE)                    ; --            ; --          ; --             ;
; POWER_PRESET_COOLING_SOLUTION       ; 23 MM HEAT SINK WITH 200 LFPM AIRFLOW  ; --            ; --          ; --             ;
; SYNTHESIS_ONLY_QIP                  ; On                                     ; --            ; --          ; --             ;
+-------------------------------------+----------------------------------------+---------------+-------------+----------------+


+-------------------------------------------------------------------------------------------------------------------------------+
; Flow Elapsed Time                                                                                                             ;
+---------------------------+--------------+-------------------------+---------------------+------------------------------------+
; Module Name               ; Elapsed Time ; Average Processors Used ; Peak Virtual Memory ; Total CPU Time (on all processors) ;
+---------------------------+--------------+-------------------------+---------------------+------------------------------------+
; Analysis & Synthesis      ; 00:00:45     ; 1.0                     ; 1171 MB             ; 00:01:02                           ;
; Fitter                    ; 00:04:12     ; 1.4                     ; 2522 MB             ; 00:10:28                           ;
; Assembler                 ; 00:00:13     ; 1.0                     ; 1113 MB             ; 00:00:13                           ;
; TimeQuest Timing Analyzer ; 00:00:40     ; 2.7                     ; 1552 MB             ; 00:01:43                           ;
; EDA Netlist Writer        ; 00:00:09     ; 1.0                     ; 1497 MB             ; 00:00:08                           ;
; Total                     ; 00:05:59     ; --                      ; --                  ; 00:13:34                           ;
+---------------------------+--------------+-------------------------+---------------------+------------------------------------+


+-----------------------------------------------------------------------------------------------+
; Flow OS Summary                                                                               ;
+---------------------------+------------------------+------------+------------+----------------+
; Module Name               ; Machine Hostname       ; OS Name    ; OS Version ; Processor type ;
+---------------------------+------------------------+------------+------------+----------------+
; Analysis & Synthesis      ; KyleKern-Precision3520 ; Arch Linux ; Arch Linux ; x86_64         ;
; Fitter                    ; KyleKern-Precision3520 ; Arch Linux ; Arch Linux ; x86_64         ;
; Assembler                 ; KyleKern-Precision3520 ; Arch Linux ; Arch Linux ; x86_64         ;
; TimeQuest Timing Analyzer ; KyleKern-Precision3520 ; Arch Linux ; Arch Linux ; x86_64         ;
; EDA Netlist Writer        ; KyleKern-Precision3520 ; Arch Linux ; Arch Linux ; x86_64         ;
+---------------------------+------------------------+------------+------------+----------------+


------------
; Flow Log ;
------------
quartus_map --read_settings_files=on --write_settings_files=off DE1_SoC_Default -c DE1_SoC_Default
quartus_fit --read_settings_files=off --write_settings_files=off DE1_SoC_Default -c DE1_SoC_Default
quartus_asm --read_settings_files=off --write_settings_files=off DE1_SoC_Default -c DE1_SoC_Default
quartus_sta DE1_SoC_Default -c DE1_SoC_Default
quartus_eda --read_settings_files=off --write_settings_files=off DE1_SoC_Default -c DE1_SoC_Default



